%YAML 1.1
%TAG !u! tag:unity3d.com,2011:
--- !u!78 &1
TagManager:
  serializedVersion: 2
  tags:
  - chao
  - Inimigo
  layers:
  - Default
  - TransparentFX
  - Ignore Raycast
  - chao
  - Water
  - UI
  - 
  - 
  - 
  - 
  - 
  - 
  - 
  - 
  - 
  - 
  - 
  - 
  - 
  - 
  - 
  - 
  - 
  - 
  - 
  - 
  - 
  - 
  - 
  - 
  - 
  - 
  m_SortingLayers:
  - name: Default
    uniqueID: 0
    locked: 0
  - name: Background
    uniqueID: 498299757
    locked: 0
  - name: Foreground
    uniqueID: 973155157
    locked: 0
  - name: Player
    uniqueID: 2313145077
    locked: 0
  - name: UI
    uniqueID: 4117634899
    locked: 0
